{
  "EDITOR_STATE": {
    "allProjectFiles": {
      "4ac7bbdc-a8c0-473d-b4b9-457670ac2afa": {
        "id": "4ac7bbdc-a8c0-473d-b4b9-457670ac2afa",
        "parent": null,
        "name": "1219_crashproject4",
        "type": "DIRECTORY",
        "isDirectory": true,
        "children": [
          "7aa15e3e-34de-4c8d-8235-e18f390d0130",
          "42905152-d9af-4c17-be93-8762a7f4de57"
        ],
        "isRemovable": false,
        "filePath": "1219_crashproject4"
      },
      "7aa15e3e-34de-4c8d-8235-e18f390d0130": {
        "id": "7aa15e3e-34de-4c8d-8235-e18f390d0130",
        "parent": "4ac7bbdc-a8c0-473d-b4b9-457670ac2afa",
        "name": "lambda.js",
        "type": "JS_LAMBDA",
        "isDirectory": false,
        "children": [],
        "isRemovable": true,
        "filePath": "1219_crashproject4/lambda.js",
        "config": {
          "runtime": "nodejs10.x",
          "handler": "handler",
          "timeout": 60,
          "memory": 128,
          "layers": []
        },
        "triggers": []
      },
      "42905152-d9af-4c17-be93-8762a7f4de57": {
        "id": "42905152-d9af-4c17-be93-8762a7f4de57",
        "parent": "4ac7bbdc-a8c0-473d-b4b9-457670ac2afa",
        "name": "indunil.json",
        "type": "JSON_FILE",
        "isDirectory": false,
        "children": [],
        "isRemovable": true,
        "filePath": "1219_crashproject4/indunil.json"
      }
    },
    "rootNode": "4ac7bbdc-a8c0-473d-b4b9-457670ac2afa",
    "openFiles": [
      "7aa15e3e-34de-4c8d-8235-e18f390d0130",
      "42905152-d9af-4c17-be93-8762a7f4de57"
    ],
    "currentFileId": "42905152-d9af-4c17-be93-8762a7f4de57",
    "resources": {},
    "customTemplate": {
      "dialect": null,
      "definitions": null
    },
    "envVariables": [
      {
        "lambdaId": "all",
        "varKey": "SIGMA_AWS_ACC_ID",
        "varValue": null,
        "shouldPersist": false,
        "displayOnly": false,
        "editable": false
      }
    ],
    "packageJSON": {
      "dependencies": {}
    }
  },
  "PROJECT_META": {
    "projectName": "1219_crashproject4",
    "projectDescription": "",
    "projectVersion": "1.0.0",
    "projectRegion": "us-east-1",
    "platform": "AWS",
    "platformRegions": {},
    "lastSave": 1576750425024
  },
  "VCS_STATE": {
    "provider": "BitBucket",
    "repo": {
      "name": "1219_crashproject4",
      "url": "https://bitbucket.org/hirudineeliyanage/1219_crashproject4"
    }
  }
}